<?xml version="1.0" encoding="utf-8"?>
<!-- Generator: Adobe Illustrator 23.0.3, SVG Export Plug-In . SVG Version: 6.00 Build 0)  -->
<svg version="1.1" xmlns="http://www.w3.org/2000/svg" xmlns:xlink="http://www.w3.org/1999/xlink" x="0px" y="0px"
	 viewBox="0 0 354 480" style="enable-background:new 0 0 354 480;" xml:space="preserve">
<style type="text/css">
	.st0{display:none;}
	.st1{fill:#FFFFFF;}
	.st2{fill:#52D03E;}
	.st3{fill:none;stroke:#000000;stroke-miterlimit:10;}
	.st4{fill:#43689E;}
</style>
<g id="Layer_2" class="st0">
	
		<image style="display:inline;overflow:visible;" width="200" height="200" xlink:href="0.png"  transform="matrix(1 0 0 1 139.6167 155.5)">
	</image>
</g>
<g id="Layer_1">
	<circle class="st1" cx="180.4" cy="211.1" r="70.4"/>
	<path class="st2" d="M196.6,459c-4.1,3.3-8.7,5.8-13.9,6.5c-14.6,2.2-23.5-7.7-33.3-16.7c-4.6-4.2-9-8.8-13.3-13.3
		c-5.3-5.4-10.4-11-15.3-16.8c-2.9-3.4-5.7-6.9-8.5-10.4c-1.5-1.9-2.9-3.8-4.4-5.7c-0.8-1.1-2.9-5.1-4.1-5.5
		c1.2,0.4,36.2,11.6,59.6-7.2c0,0,18.3-9.1,46.3-50.5c7-10.4,14.7-22.9,22.9-37.8c0,0,50.1-93.1,28.6-171.8c0,0-12.4-124.5-166-77.8
		c24.5-15.7,53.6-24.8,84.9-24.8c32.3,0,64.2,10.1,90.7,28.7c25.9,18.2,46,44.2,57,73.9c14.5,39.1,14.6,82.8,1.4,122.3
		c-13.4,39.9-34.6,76.7-58.5,111.1c-11.8,17-24,33.6-36.6,50c-6.9,9-14.1,17.7-20.9,26.8C208.5,446.3,203.1,453.7,196.6,459z"/>
	<path class="st3" d="M103.7,397.2C103.7,397.2,103.7,397.2,103.7,397.2"/>
	<path class="st4" d="M180.8,283.4c-39.6,0-71.7-32.1-71.7-71.7c0-39.6,32.1-71.7,71.7-71.7c29.5,0,54.9,17.9,65.9,43.4
		c1.5-53.5-18.5-86.5-18.5-86.5C185.6,19.4,93.8,60.8,93.8,60.8C1.6,109.3,26,221.6,26,221.6c19.4,84.7,79.2,152.7,79.2,152.7h31.2
		c53.1-22.9,80.7-84.5,80.7-84.5c4.5-8.5,8.3-16.7,11.6-24.8C216,276.4,199.2,283.4,180.8,283.4z"/>
</g>
</svg>
